{
  "version": "1.0.0",
  "errorCode": 200,
  "errorDescription": "OK",
  "response": {
    "members": [
      {
        "addrUserCount": 80546,
        "apartmentCount": 25434416,
        "cityId": 0,
        "cityName": "全国",
        "communityCount": 255343,
        "createTime": "2015-09-06 02:00:00",
        "dataType": 0,
        "dateStr": "2015-09-05",
        "id": 1858522,
        "pendingAddrUserCount": 0,
        "pendingApartmentCount": 13184,
        "regUserCount": 181153,
        "topicCommentCount": 62164,
        "topicCount": 14084,
        "topicLikeCount": 28148
      },
      {
        "addrUserCount": 30230,
        "apartmentCount": 2515166,
        "cityId": 5636851,
        "cityName": "深圳市",
        "communityCount": 4921,
        "createTime": "2015-09-06 02:02:38",
        "dataType": 0,
        "dateStr": "2015-09-05",
        "id": 1858713,
        "pendingAddrUserCount": 0,
        "pendingApartmentCount": 3359,
        "regUserCount": 25247,
        "topicCommentCount": 39625,
        "topicCount": 5446,
        "topicLikeCount": 4875
      },
      {
        "addrUserCount": 25056,
        "apartmentCount": 4930314,
        "cityId": 5636106,
        "cityName": "北京市",
        "communityCount": 6570,
        "createTime": "2015-09-06 02:02:38",
        "dataType": 0,
        "dateStr": "2015-09-05",
        "id": 1858523,
        "pendingAddrUserCount": 0,
        "pendingApartmentCount": 3656,
        "regUserCount": 23771,
        "topicCommentCount": 11557,
        "topicCount": 4177,
        "topicLikeCount": 13515
      },
      {
        "addrUserCount": 6938,
        "apartmentCount": 1875617,
        "cityId": 5636123,
        "cityName": "武汉市",
        "communityCount": 3029,
        "createTime": "2015-09-06 02:02:38",
        "dataType": 0,
        "dateStr": "2015-09-05",
        "id": 1858530,
        "pendingAddrUserCount": 0,
        "pendingApartmentCount": 541,
        "regUserCount": 6366,
        "topicCommentCount": 3640,
        "topicCount": 2070,
        "topicLikeCount": 1339
      },
      {
        "addrUserCount": 1309,
        "apartmentCount": 1059861,
        "cityId": 5636116,
        "cityName": "广州市",
        "communityCount": 6071,
        "createTime": "2015-09-06 02:02:38",
        "dataType": 0,
        "dateStr": "2015-09-05",
        "id": 1858524,
        "pendingAddrUserCount": 0,
        "pendingApartmentCount": 461,
        "regUserCount": 5519,
        "topicCommentCount": 1039,
        "topicCount": 375,
        "topicLikeCount": 84
      },
      {
        "addrUserCount": 4077,
        "apartmentCount": 1407635,
        "cityId": 5636667,
        "cityName": "杭州市",
        "communityCount": 2705,
        "createTime": "2015-09-06 02:02:38",
        "dataType": 0,
        "dateStr": "2015-09-05",
        "id": 1858656,
        "pendingAddrUserCount": 0,
        "pendingApartmentCount": 311,
        "regUserCount": 4803,
        "topicCommentCount": 260,
        "topicCount": 226,
        "topicLikeCount": 117
      },
      {
        "addrUserCount": 1893,
        "apartmentCount": 3266105,
        "cityId": 5636117,
        "cityName": "上海市",
        "communityCount": 11204,
        "createTime": "2015-09-06 02:02:38",
        "dataType": 0,
        "dateStr": "2015-09-05",
        "id": 1858525,
        "pendingAddrUserCount": 0,
        "pendingApartmentCount": 418,
        "regUserCount": 3841,
        "topicCommentCount": 4371,
        "topicCount": 1080,
        "topicLikeCount": 1498
      },
      {
        "addrUserCount": 349,
        "apartmentCount": 330,
        "cityId": 5636119,
        "cityName": "重庆市",
        "communityCount": 6724,
        "createTime": "2015-09-06 02:02:38",
        "dataType": 0,
        "dateStr": "2015-09-05",
        "id": 1858527,
        "pendingAddrUserCount": 0,
        "pendingApartmentCount": 139,
        "regUserCount": 2359,
        "topicCommentCount": 13,
        "topicCount": 7,
        "topicLikeCount": 7
      },
      {
        "addrUserCount": 519,
        "apartmentCount": 1539493,
        "cityId": 5636124,
        "cityName": "成都市",
        "communityCount": 7023,
        "createTime": "2015-09-06 02:02:38",
        "dataType": 0,
        "dateStr": "2015-09-05",
        "id": 1858531,
        "pendingAddrUserCount": 0,
        "pendingApartmentCount": 156,
        "regUserCount": 2265,
        "topicCommentCount": 47,
        "topicCount": 28,
        "topicLikeCount": 6
      },
      {
        "addrUserCount": 191,
        "apartmentCount": 331692,
        "cityId": 5636865,
        "cityName": "东莞市",
        "communityCount": 1963,
        "createTime": "2015-09-06 02:02:38",
        "dataType": 0,
        "dateStr": "2015-09-05",
        "id": 1858723,
        "pendingAddrUserCount": 0,
        "pendingApartmentCount": 78,
        "regUserCount": 2232,
        "topicCommentCount": 10,
        "topicCount": 9,
        "topicLikeCount": 3
      },
      {
        "addrUserCount": 124,
        "apartmentCount": 329932,
        "cityId": 5636853,
        "cityName": "佛山市",
        "communityCount": 3454,
        "createTime": "2015-09-06 02:02:38",
        "dataType": 0,
        "dateStr": "2015-09-05",
        "id": 1858715,
        "pendingAddrUserCount": 0,
        "pendingApartmentCount": 64,
        "regUserCount": 1896,
        "topicCommentCount": 6,
        "topicCount": 1,
        "topicLikeCount": 0
      },
      {
        "addrUserCount": 259,
        "apartmentCount": 211891,
        "cityId": 5636467,
        "cityName": "郑州市",
        "communityCount": 3958,
        "createTime": "2015-09-06 02:02:38",
        "dataType": 0,
        "dateStr": "2015-09-05",
        "id": 1858556,
        "pendingAddrUserCount": 0,
        "pendingApartmentCount": 105,
        "regUserCount": 1829,
        "topicCommentCount": 22,
        "topicCount": 9,
        "topicLikeCount": 7
      },
      {
        "addrUserCount": 807,
        "apartmentCount": 821929,
        "cityId": 5636827,
        "cityName": "长沙市",
        "communityCount": 3077,
        "createTime": "2015-09-06 02:02:38",
        "dataType": 0,
        "dateStr": "2015-09-05",
        "id": 1858697,
        "pendingAddrUserCount": 0,
        "pendingApartmentCount": 174,
        "regUserCount": 1673,
        "topicCommentCount": 58,
        "topicCount": 47,
        "topicLikeCount": 26
      },
      {
        "addrUserCount": 285,
        "apartmentCount": 979266,
        "cityId": 5636125,
        "cityName": "西安市",
        "communityCount": 5441,
        "createTime": "2015-09-06 02:02:38",
        "dataType": 0,
        "dateStr": "2015-09-05",
        "id": 1858532,
        "pendingAddrUserCount": 0,
        "pendingApartmentCount": 98,
        "regUserCount": 1615,
        "topicCommentCount": 47,
        "topicCount": 21,
        "topicLikeCount": 15
      },
      {
        "addrUserCount": 169,
        "apartmentCount": 113734,
        "cityId": 5636407,
        "cityName": "石家庄市",
        "communityCount": 2107,
        "createTime": "2015-09-06 02:02:38",
        "dataType": 0,
        "dateStr": "2015-09-05",
        "id": 1858534,
        "pendingAddrUserCount": 0,
        "pendingApartmentCount": 79,
        "regUserCount": 1557,
        "topicCommentCount": 7,
        "topicCount": 6,
        "topicLikeCount": 2
      },
      {
        "addrUserCount": 198,
        "apartmentCount": 618300,
        "cityId": 5636608,
        "cityName": "苏州市",
        "communityCount": 3145,
        "createTime": "2015-09-06 02:02:38",
        "dataType": 0,
        "dateStr": "2015-09-05",
        "id": 1858618,
        "pendingAddrUserCount": 0,
        "pendingApartmentCount": 83,
        "regUserCount": 1480,
        "topicCommentCount": 17,
        "topicCount": 6,
        "topicLikeCount": 2
      },
      {
        "addrUserCount": 306,
        "apartmentCount": 212846,
        "cityId": 5636118,
        "cityName": "天津市",
        "communityCount": 5185,
        "createTime": "2015-09-06 02:02:38",
        "dataType": 0,
        "dateStr": "2015-09-05",
        "id": 1858526,
        "pendingAddrUserCount": 0,
        "pendingApartmentCount": 151,
        "regUserCount": 1381,
        "topicCommentCount": 27,
        "topicCount": 4,
        "topicLikeCount": 2
      },
      {
        "addrUserCount": 240,
        "apartmentCount": 415122,
        "cityId": 5636121,
        "cityName": "南京市",
        "communityCount": 4121,
        "createTime": "2015-09-06 02:02:38",
        "dataType": 0,
        "dateStr": "2015-09-05",
        "id": 1858529,
        "pendingAddrUserCount": 0,
        "pendingApartmentCount": 83,
        "regUserCount": 1231,
        "topicCommentCount": 7,
        "topicCount": 3,
        "topicLikeCount": 0
      },
      {
        "addrUserCount": 43,
        "apartmentCount": 41,
        "cityId": 5636408,
        "cityName": "保定市",
        "communityCount": 180,
        "createTime": "2015-09-06 02:02:38",
        "dataType": 0,
        "dateStr": "2015-09-05",
        "id": 1858535,
        "pendingAddrUserCount": 0,
        "pendingApartmentCount": 12,
        "regUserCount": 1075,
        "topicCommentCount": 1,
        "topicCount": 0,
        "topicLikeCount": 0
      },
      {
        "addrUserCount": 109,
        "apartmentCount": 99,
        "cityId": 5636867,
        "cityName": "南宁市",
        "communityCount": 1748,
        "createTime": "2015-09-06 02:02:38",
        "dataType": 0,
        "dateStr": "2015-09-05",
        "id": 1858725,
        "pendingAddrUserCount": 0,
        "pendingApartmentCount": 39,
        "regUserCount": 1047,
        "topicCommentCount": 6,
        "topicCount": 2,
        "topicLikeCount": 2
      },
      {
        "addrUserCount": 128,
        "apartmentCount": 102,
        "cityId": 5636632,
        "cityName": "潍坊市",
        "communityCount": 1281,
        "createTime": "2015-09-06 02:02:38",
        "dataType": 0,
        "dateStr": "2015-09-05",
        "id": 1858634,
        "pendingAddrUserCount": 0,
        "pendingApartmentCount": 50,
        "regUserCount": 1047,
        "topicCommentCount": 18,
        "topicCount": 2,
        "topicLikeCount": 0
      },
      {
        "addrUserCount": 168,
        "apartmentCount": 140,
        "cityId": 5636627,
        "cityName": "济南市",
        "communityCount": 3057,
        "createTime": "2015-09-06 02:02:38",
        "dataType": 0,
        "dateStr": "2015-09-05",
        "id": 1858629,
        "pendingAddrUserCount": 0,
        "pendingApartmentCount": 75,
        "regUserCount": 1044,
        "topicCommentCount": 8,
        "topicCount": 6,
        "topicLikeCount": 4
      },
      {
        "addrUserCount": 165,
        "apartmentCount": 184106,
        "cityId": 5636447,
        "cityName": "太原市",
        "communityCount": 1663,
        "createTime": "2015-09-06 02:02:38",
        "dataType": 0,
        "dateStr": "2015-09-05",
        "id": 1858546,
        "pendingAddrUserCount": 0,
        "pendingApartmentCount": 58,
        "regUserCount": 1035,
        "topicCommentCount": 11,
        "topicCount": 11,
        "topicLikeCount": 2
      },
      {
        "addrUserCount": 123,
        "apartmentCount": 259102,
        "cityId": 5636547,
        "cityName": "哈尔滨市",
        "communityCount": 1488,
        "createTime": "2015-09-06 02:02:38",
        "dataType": 0,
        "dateStr": "2015-09-05",
        "id": 1858592,
        "pendingAddrUserCount": 0,
        "pendingApartmentCount": 48,
        "regUserCount": 1015,
        "topicCommentCount": 8,
        "topicCount": 5,
        "topicLikeCount": 2
      },
      {
        "addrUserCount": 96,
        "apartmentCount": 299173,
        "cityId": 5636887,
        "cityName": "南昌市",
        "communityCount": 2356,
        "createTime": "2015-09-06 02:02:38",
        "dataType": 0,
        "dateStr": "2015-09-05",
        "id": 1858732,
        "pendingAddrUserCount": 0,
        "pendingApartmentCount": 37,
        "regUserCount": 1014,
        "topicCommentCount": 11,
        "topicCount": 6,
        "topicLikeCount": 2
      },
      {
        "addrUserCount": 177,
        "apartmentCount": 310051,
        "cityId": 5636628,
        "cityName": "青岛市",
        "communityCount": 3027,
        "createTime": "2015-09-06 02:02:38",
        "dataType": 0,
        "dateStr": "2015-09-05",
        "id": 1858630,
        "pendingAddrUserCount": 0,
        "pendingApartmentCount": 68,
        "regUserCount": 1005,
        "topicCommentCount": 146,
        "topicCount": 26,
        "topicLikeCount": 2
      },
      {
        "addrUserCount": 136,
        "apartmentCount": 206150,
        "cityId": 5636120,
        "cityName": "沈阳市",
        "communityCount": 3329,
        "createTime": "2015-09-06 02:02:38",
        "dataType": 0,
        "dateStr": "2015-09-05",
        "id": 1858528,
        "pendingAddrUserCount": 0,
        "pendingApartmentCount": 75,
        "regUserCount": 984,
        "topicCommentCount": 6,
        "topicCount": 3,
        "topicLikeCount": 0
      },
      {
        "addrUserCount": 41,
        "apartmentCount": 37,
        "cityId": 5636673,
        "cityName": "温州市",
        "communityCount": 308,
        "createTime": "2015-09-06 02:02:38",
        "dataType": 0,
        "dateStr": "2015-09-05",
        "id": 1858662,
        "pendingAddrUserCount": 0,
        "pendingApartmentCount": 14,
        "regUserCount": 981,
        "topicCommentCount": 22,
        "topicCount": 3,
        "topicLikeCount": 2
      },
      {
        "addrUserCount": 49,
        "apartmentCount": 43,
        "cityId": 5636406,
        "cityName": "邯郸市",
        "communityCount": 586,
        "createTime": "2015-09-06 02:02:38",
        "dataType": 0,
        "dateStr": "2015-09-05",
        "id": 1858533,
        "pendingAddrUserCount": 0,
        "pendingApartmentCount": 17,
        "regUserCount": 975,
        "topicCommentCount": 0,
        "topicCount": 1,
        "topicLikeCount": 0
      },
      {
        "addrUserCount": 59,
        "apartmentCount": 53,
        "cityId": 5636850,
        "cityName": "汕头市",
        "communityCount": 713,
        "createTime": "2015-09-06 02:02:38",
        "dataType": 0,
        "dateStr": "2015-09-05",
        "id": 1858712,
        "pendingAddrUserCount": 0,
        "pendingApartmentCount": 38,
        "regUserCount": 971,
        "topicCommentCount": 2,
        "topicCount": 0,
        "topicLikeCount": 0
      },
      {
        "addrUserCount": 37,
        "apartmentCount": 31,
        "cityId": 5636855,
        "cityName": "湛江市",
        "communityCount": 287,
        "createTime": "2015-09-06 02:02:38",
        "dataType": 0,
        "dateStr": "2015-09-05",
        "id": 1858717,
        "pendingAddrUserCount": 0,
        "pendingApartmentCount": 18,
        "regUserCount": 963,
        "topicCommentCount": 2,
        "topicCount": 0,
        "topicLikeCount": 0
      },
      {
        "addrUserCount": 104,
        "apartmentCount": 128004,
        "cityId": 5636687,
        "cityName": "福州市",
        "communityCount": 2509,
        "createTime": "2015-09-06 02:02:38",
        "dataType": 0,
        "dateStr": "2015-09-05",
        "id": 1858666,
        "pendingAddrUserCount": 0,
        "pendingApartmentCount": 35,
        "regUserCount": 942,
        "topicCommentCount": 6,
        "topicCount": 12,
        "topicLikeCount": 4
      },
      {
        "addrUserCount": 167,
        "apartmentCount": 922196,
        "cityId": 5636647,
        "cityName": "合肥市",
        "communityCount": 3030,
        "createTime": "2015-09-06 02:02:38",
        "dataType": 0,
        "dateStr": "2015-09-05",
        "id": 1858641,
        "pendingAddrUserCount": 0,
        "pendingApartmentCount": 66,
        "regUserCount": 924,
        "topicCommentCount": 16,
        "topicCount": 8,
        "topicLikeCount": 1
      },
      {
        "addrUserCount": 34,
        "apartmentCount": 25,
        "cityId": 5636846,
        "cityName": "江门市",
        "communityCount": 350,
        "createTime": "2015-09-06 02:02:38",
        "dataType": 0,
        "dateStr": "2015-09-05",
        "id": 1858708,
        "pendingAddrUserCount": 0,
        "pendingApartmentCount": 23,
        "regUserCount": 909,
        "topicCommentCount": 1,
        "topicCount": 0,
        "topicLikeCount": 0
      },
      {
        "addrUserCount": 57,
        "apartmentCount": 49,
        "cityId": 5636856,
        "cityName": "中山市",
        "communityCount": 1043,
        "createTime": "2015-09-06 02:02:38",
        "dataType": 0,
        "dateStr": "2015-09-05",
        "id": 1858718,
        "pendingAddrUserCount": 0,
        "pendingApartmentCount": 26,
        "regUserCount": 900,
        "topicCommentCount": 6,
        "topicCount": 0,
        "topicLikeCount": 1
      },
      {
        "addrUserCount": 49,
        "apartmentCount": 43,
        "cityId": 5636411,
        "cityName": "唐山市",
        "communityCount": 672,
        "createTime": "2015-09-06 02:02:38",
        "dataType": 0,
        "dateStr": "2015-09-05",
        "id": 1858538,
        "pendingAddrUserCount": 0,
        "pendingApartmentCount": 25,
        "regUserCount": 862,
        "topicCommentCount": 2,
        "topicCount": 0,
        "topicLikeCount": 0
      },
      {
        "addrUserCount": 66,
        "apartmentCount": 288275,
        "cityId": 5636670,
        "cityName": "宁波市",
        "communityCount": 1971,
        "createTime": "2015-09-06 02:02:38",
        "dataType": 0,
        "dateStr": "2015-09-05",
        "id": 1858659,
        "pendingAddrUserCount": 0,
        "pendingApartmentCount": 26,
        "regUserCount": 860,
        "topicCommentCount": 6,
        "topicCount": 1,
        "topicLikeCount": 0
      },
      {
        "addrUserCount": 14,
        "apartmentCount": 13,
        "cityId": 5636848,
        "cityName": "惠州市",
        "communityCount": 58,
        "createTime": "2015-09-06 02:02:38",
        "dataType": 0,
        "dateStr": "2015-09-05",
        "id": 1858710,
        "pendingAddrUserCount": 0,
        "pendingApartmentCount": 8,
        "regUserCount": 842,
        "topicCommentCount": 0,
        "topicCount": 0,
        "topicLikeCount": 0
      },
      {
        "addrUserCount": 27,
        "apartmentCount": 26,
        "cityId": 5636691,
        "cityName": "泉州市",
        "communityCount": 241,
        "createTime": "2015-09-06 02:02:38",
        "dataType": 0,
        "dateStr": "2015-09-05",
        "id": 1858670,
        "pendingAddrUserCount": 0,
        "pendingApartmentCount": 13,
        "regUserCount": 835,
        "topicCommentCount": 1,
        "topicCount": 1,
        "topicLikeCount": 0
      },
      {
        "addrUserCount": 34,
        "apartmentCount": 33,
        "cityId": 5636469,
        "cityName": "新乡市",
        "communityCount": 577,
        "createTime": "2015-09-06 02:02:38",
        "dataType": 0,
        "dateStr": "2015-09-05",
        "id": 1858558,
        "pendingAddrUserCount": 0,
        "pendingApartmentCount": 18,
        "regUserCount": 822,
        "topicCommentCount": 16,
        "topicCount": 1,
        "topicLikeCount": 0
      },
      {
        "addrUserCount": 47,
        "apartmentCount": 36,
        "cityId": 5636612,
        "cityName": "徐州市",
        "communityCount": 704,
        "createTime": "2015-09-06 02:02:38",
        "dataType": 0,
        "dateStr": "2015-09-05",
        "id": 1858622,
        "pendingAddrUserCount": 0,
        "pendingApartmentCount": 23,
        "regUserCount": 809,
        "topicCommentCount": 1,
        "topicCount": 1,
        "topicLikeCount": 0
      },
      {
        "addrUserCount": 39,
        "apartmentCount": 32,
        "cityId": 5636893,
        "cityName": "赣州市",
        "communityCount": 345,
        "createTime": "2015-09-06 02:02:38",
        "dataType": 0,
        "dateStr": "2015-09-05",
        "id": 1858738,
        "pendingAddrUserCount": 0,
        "pendingApartmentCount": 16,
        "regUserCount": 796,
        "topicCommentCount": 2,
        "topicCount": 0,
        "topicLikeCount": 0
      },
      {
        "addrUserCount": 101,
        "apartmentCount": 416796,
        "cityId": 5636606,
        "cityName": "无锡市",
        "communityCount": 1513,
        "createTime": "2015-09-06 02:02:38",
        "dataType": 0,
        "dateStr": "2015-09-05",
        "id": 1858616,
        "pendingAddrUserCount": 0,
        "pendingApartmentCount": 44,
        "regUserCount": 778,
        "topicCommentCount": 10,
        "topicCount": 6,
        "topicLikeCount": 2
      },
      {
        "addrUserCount": 19,
        "apartmentCount": 16,
        "cityId": 5636759,
        "cityName": "揭阳市",
        "communityCount": 168,
        "createTime": "2015-09-06 02:02:38",
        "dataType": 0,
        "dateStr": "2015-09-05",
        "id": 1858682,
        "pendingAddrUserCount": 0,
        "pendingApartmentCount": 14,
        "regUserCount": 774,
        "topicCommentCount": 2,
        "topicCount": 0,
        "topicLikeCount": 0
      },
      {
        "addrUserCount": 13,
        "apartmentCount": 10,
        "cityId": 5636764,
        "cityName": "茂名市",
        "communityCount": 286,
        "createTime": "2015-09-06 02:02:38",
        "dataType": 0,
        "dateStr": "2015-09-05",
        "id": 1858683,
        "pendingAddrUserCount": 0,
        "pendingApartmentCount": 9,
        "regUserCount": 724,
        "topicCommentCount": 0,
        "topicCount": 0,
        "topicLikeCount": 0
      },
      {
        "addrUserCount": 68,
        "apartmentCount": 59,
        "cityId": 5636635,
        "cityName": "临沂市",
        "communityCount": 654,
        "createTime": "2015-09-06 02:02:38",
        "dataType": 0,
        "dateStr": "2015-09-05",
        "id": 1858637,
        "pendingAddrUserCount": 0,
        "pendingApartmentCount": 19,
        "regUserCount": 703,
        "topicCommentCount": 12,
        "topicCount": 4,
        "topicLikeCount": 0
      },
      {
        "addrUserCount": 52,
        "apartmentCount": 45,
        "cityId": 5636475,
        "cityName": "洛阳市",
        "communityCount": 1485,
        "createTime": "2015-09-06 02:02:38",
        "dataType": 0,
        "dateStr": "2015-09-05",
        "id": 1858564,
        "pendingAddrUserCount": 0,
        "pendingApartmentCount": 28,
        "regUserCount": 687,
        "topicCommentCount": 3,
        "topicCount": 1,
        "topicLikeCount": 1
      },
      {
        "addrUserCount": 111,
        "apartmentCount": 564195,
        "cityId": 5636527,
        "cityName": "长春市",
        "communityCount": 1761,
        "createTime": "2015-09-06 02:02:38",
        "dataType": 0,
        "dateStr": "2015-09-05",
        "id": 1858584,
        "pendingAddrUserCount": 0,
        "pendingApartmentCount": 46,
        "regUserCount": 683,
        "topicCommentCount": 5,
        "topicCount": 4,
        "topicLikeCount": 4
      },
      {
        "addrUserCount": 31,
        "apartmentCount": 28,
        "cityId": 5657701,
        "cityName": "玉林市",
        "communityCount": 210,
        "createTime": "2015-09-06 02:02:38",
        "dataType": 0,
        "dateStr": "2015-09-05",
        "id": 1860402,
        "pendingAddrUserCount": 0,
        "pendingApartmentCount": 12,
        "regUserCount": 681,
        "topicCommentCount": 0,
        "topicCount": 0,
        "topicLikeCount": 0
      },
      {
        "addrUserCount": 104,
        "apartmentCount": 167694,
        "cityId": 5636507,
        "cityName": "大连市",
        "communityCount": 2676,
        "createTime": "2015-09-06 02:02:38",
        "dataType": 0,
        "dateStr": "2015-09-05",
        "id": 1858572,
        "pendingAddrUserCount": 0,
        "pendingApartmentCount": 45,
        "regUserCount": 672,
        "topicCommentCount": 6,
        "topicCount": 1,
        "topicLikeCount": 0
      }
    ],
    "dateStr": "2015-09-05",
    "errCode": 0,
    "errDesc": null,
    "pagination": {
      "baseLink": "http:\/\/www.everhomes.com\/admin\/statistics?keyWord=",
      "currentPage": 1,
      "currentPageLink": "http:\/\/www.everhomes.com\/admin\/statistics?keyWord=&pageNum=1",
      "firstPage": true,
      "lastPage": false,
      "nextPageLink": "http:\/\/www.everhomes.com\/admin\/statistics?keyWord=&pageNum=2",
      "pageCount": 50,
      "previousPageLink": "http:\/\/www.everhomes.com\/admin\/statistics?keyWord=&pageNum=0",
      "totalCount": 2132,
      "totalPage": 43
    }
  }
}